…
  male   4506  403
> NHANES %>% group_by(Gender, Diabetes) %>% count()
# A tibble: 6 × 3
# Groups:   Gender, Diabetes [6]
  Gender Diabetes     n
  <fct>  <fct>    <int>
1 female No        4592
2 female Yes        357
3 female <NA>        71
4 male   No        4506
5 male   Yes        403
6 male   <NA>        71
> diabetes <- NHANES %>% select(Gender, Diabetes, Age, BMI, PhysActive, HHIncome) %>% na.omit()
> diabetes
# A tibble: 7,555 × 6
   Gender Diabetes   Age   BMI PhysActive HHIncome   
   <fct>  <fct>    <int> <dbl> <fct>      <fct>      
 1 male   No          34  32.2 No         25000-34999
 2 male   No          34  32.2 No         25000-34999
 3 male   No          34  32.2 No         25000-34999
 4 female No          49  30.6 No         35000-44999
 5 female No          45  27.2 Yes        75000-99999
 6 female No          45  27.2 Yes        75000-99999
 7 female No          45  27.2 Yes        75000-99999
 8 male   No          66  23.7 Yes        25000-34999
 9 male   No          58  23.7 Yes        more 99999 
10 male   No          54  26.0 Yes        65000-74999
# … with 7,545 more rows
…
