…
> clean_up_err <- function(perf)
+ { ns <- sapply(1:2, function(x){length(perf@x.values[[x]])})
+   fold <- unlist(lapply(1:2, function(x){rep(x,ns[x])}))
+   threshold <- unlist(perf@x.values)
+   error <- unlist(perf@y.values)
+   return(data_frame(threshold = threshold, error=error, fold = as.character(fold)) )
+ }
> train_df <- clean_up_err(perf_obj_train)
Warning: `data_frame()` was deprecated in tibble 1.1.0.
ℹ Please use `tibble()` instead.
This warning is displayed once every 8 hours.
Call `lifecycle::last_lifecycle_warnings()` to see where this warning was
generated.
> train_df
# A tibble: 3,845 × 3
   threshold error fold 
       <dbl> <dbl> <chr>
 1    Inf    0.398 1    
 2      1    0.397 1    
 3      1.00 0.396 1    
 4      1.00 0.396 1    
 5      1.00 0.395 1    
 6      1.00 0.395 1    
 7      1.00 0.395 1    
 8      1.00 0.394 1    
 9      1.00 0.394 1    
10      1.00 0.393 1    
# … with 3,835 more rows
…
