…
### 3. The following command shows there are 142 years with at least one baby named Tillie. Is this statement necessarily true? (Hint: Think about what 1 row represents)

``` r
> filter(babynames, name == "Tillie")
# A tibble: 142 × 5
    year sex   name       n     prop
   <dbl> <chr> <chr>  <int>    <dbl>
 1  1880 F     Tillie    83 0.000850
 2  1881 F     Tillie    82 0.000830
 3  1882 F     Tillie   104 0.000899
 4  1883 F     Tillie   114 0.000950
 5  1884 F     Tillie   145 0.00105 
 6  1885 F     Tillie   101 0.000712
 7  1886 F     Tillie   143 0.000930
 8  1887 F     Tillie   140 0.000901
 9  1888 F     Tillie   154 0.000813
10  1889 F     Tillie   188 0.000994
# … with 132 more rows
```

### 4. What does this command do?

``` r
> filter(babynames, name %in% c("Tillie","Tilly","Mathilda","Matilda"))
# A tibble: 457 × 5
    year sex   name         n     prop
   <dbl> <chr> <chr>    <int>    <dbl>
 1  1880 F     Matilda    210 0.00215 
 2  1880 F     Tillie      83 0.000850
 3  1880 F     Mathilda    72 0.000738
 4  1881 F     Matilda    187 0.00189 
 5  1881 F     Tillie      82 0.000830
 6  1881 F     Mathilda    69 0.000698
 7  1882 F     Matilda    242 0.00209 
 8  1882 F     Tillie     104 0.000899
 9  1882 F     Mathilda    68 0.000588
10  1883 F     Matilda    167 0.00139 
# … with 447 more rows
```
…
### 6. Interpret the summaries given in 5.

### 7. Which year did not have any babies named Tillie for female births?

### 8. Counting babies

Use the `yearSizes` data to answer the following questions. (You will
need to transform this dataset to answer some questions.)

``` r
> yearSizes <- babynames %>% 
+   group_by(year,sex) %>%
+   summarize(n_names = n(), size = sum(n))
> yearSizes
# A tibble: 276 × 4
# Groups:   year [138]
    year sex   n_names   size
   <dbl> <chr>   <int>  <int>
 1  1880 F         942  90993
 2  1880 M        1058 110491
 3  1881 F         938  91953
 4  1881 M         997 100743
 5  1882 F        1028 107847
 6  1882 M        1099 113686
 7  1883 F        1054 112319
 8  1883 M        1030 104627
 9  1884 F        1172 129020
10  1884 M        1125 114442
# … with 266 more rows
```
…
