…
``` r
> energy_time <- energy %>% 
+   filter(month==10) %>% 
+   group_by(timeHour) %>% 
+   summarize(N=n(),mean_energy=mean(`Center_for_Mathematics_&_Computing`,na.rm=TRUE)) %>%
+   print(n=5)
# A tibble: 24 × 3
  timeHour     N mean_energy
     <dbl> <int>       <dbl>
1        0   124        13.0
2        1   124        12.4
3        2   124        12.2
4        3   124        12.2
5        4   124        12.1
# … with 19 more rows
…
**2.** Same idea as above, but now we need to also group by day of the
week. So we are averaging the 4 hourly usage amounts over the 4-5 times
a each day of the week occurs in a month. We can see a distinct
difference in hourly usage on weekdays vs. weekends. On weekends there
is only a small bump in usage during the afternoon and Sunday evening.

``` r
> energy_daytime <- energy %>% 
+   filter(month==10) %>% 
+   group_by(dayWeek,timeHour) %>% 
+   summarize(N=n(),mean_energy=mean(`Center_for_Mathematics_&_Computing`,na.rm=TRUE)) %>%
+   print(n=5)
# A tibble: 168 × 4
# Groups:   dayWeek [7]
  dayWeek timeHour     N mean_energy
  <fct>      <dbl> <int>       <dbl>
1 Mon            0    16        12.9
2 Mon            1    16        12.3
3 Mon            2    16        12.0
4 Mon            3    16        12.0
5 Mon            4    16        11.8
# … with 163 more rows
…
#### *Answer:*

**1.** Now our analysis unit is day of the week (instead of hour). There
are 96 readings per day and there will be 4 to 5 days of the week in a
month, so we should see either 384 or 480 readings averaged to get our
mean usage by day of the week in Oct. We see that usage peaks mid-week
and falls during the weekend.

``` r
> energy_dayWeek <- energy %>% 
+   filter(month==10) %>% 
+   group_by(dayWeek) %>% 
+   summarize(N=n(),mean_energy=mean(`Center_for_Mathematics_&_Computing`,na.rm=TRUE)) %>%
+   print(n=5)  
# A tibble: 7 × 3
  dayWeek     N mean_energy
  <fct>   <int>       <dbl>
1 Mon       384        14.5
2 Tues      384        14.7
3 Wed       384        15.1
4 Thurs     480        14.7
5 Fri       480        14.6
# … with 2 more rows
…
**2.** In wide form, adding another building is challenging. You could
add a couple additional buildings by creating more building specific
means during the `summarize` command. You then add these lines to the
existing plot by adding more `geom` commands. But to do this for many
buildings would require a lot of code, a `for` loop or use of an `apply`
command (which we haven’t learned yet). The easier way to do this would
be to restructure the data.

``` r
> energy_dayWeek2 <- energy %>% 
+   filter(month==10) %>% 
+   group_by(dayWeek) %>% 
+   summarize(N=n(),mean_energyCMC=mean(`Center_for_Mathematics_&_Computing`,na.rm=TRUE),mean_energyLaird=mean(Laird_Hall,na.rm=TRUE)) %>%
+   print(n=5)  
# A tibble: 7 × 4
  dayWeek     N mean_energyCMC mean_energyLaird
  <fct>   <int>          <dbl>            <dbl>
1 Mon       384           14.5             31.7
2 Tues      384           14.7             31.3
3 Wed       384           15.1             32.4
4 Thurs     480           14.7             31.7
5 Fri       480           14.6             30.9
# … with 2 more rows
…
