…
``` r
> energy_time <- energy %>% 
+   filter(month==10) %>% 
+   group_by(timeHour) %>% 
+   summarize(N=n(),mean_energy=mean(`Center_for_Mathematics_&_Computing`,na.rm=TRUE)) %>%
+   print(n=5)
# A tibble: 24 × 3
  timeHour     N mean_energy
     <dbl> <int>       <dbl>
1        0   124        13.0
2        1   124        12.4
3        2   124        12.2
4        3   124        12.2
5        4   124        12.1
# … with 19 more rows
…
**2.** Same idea as above, but now we need to also group by day of the
week. So we are averaging the 4 hourly usage amounts over the 4-5 times
a each day of the week occurs in a month. We can see a distinct
difference in hourly usage on weekdays vs. weekends. On weekends there
is only a small bump in usage during the afternoon and Sunday evening.

``` r
> energy_daytime <- energy %>% 
+   filter(month==10) %>% 
+   group_by(dayWeek,timeHour) %>% 
+   summarize(N=n(),mean_energy=mean(`Center_for_Mathematics_&_Computing`,na.rm=TRUE)) %>%
+   print(n=5)
# A tibble: 168 × 4
# Groups:   dayWeek [7]
  dayWeek timeHour     N mean_energy
  <fct>      <dbl> <int>       <dbl>
1 Mon            0    16        12.9
2 Mon            1    16        12.3
3 Mon            2    16        12.0
4 Mon            3    16        12.0
5 Mon            4    16        11.8
# … with 163 more rows
…
#### *Answer:*

**1.** Now our analysis unit is day of the week (instead of hour). There
are 96 readings per day and there will be 4 to 5 days of the week in a
month, so we should see either 384 or 480 readings averaged to get our
mean usage by day of the week in Oct. We see that usage peaks mid-week
and falls during the weekend.

``` r
> energy_dayWeek <- energy %>% 
+   filter(month==10) %>% 
+   group_by(dayWeek) %>% 
+   summarize(N=n(),mean_energy=mean(`Center_for_Mathematics_&_Computing`,na.rm=TRUE)) %>%
+   print(n=5)  
# A tibble: 7 × 3
  dayWeek     N mean_energy
  <fct>   <int>       <dbl>
1 Mon       384        14.5
2 Tues      384        14.7
3 Wed       384        15.1
4 Thurs     480        14.7
5 Fri       480        14.6
# … with 2 more rows
…
**2.** In wide form, adding another building is challenging. You could
add a couple additional buildings by creating more building specific
means during the `summarize` command. You then add these lines to the
existing plot by adding more `geom` commands. But to do this for many
buildings would require a lot of code, a `for` loop or use of an `apply`
command (which we haven’t learned yet). The easier way to do this would
be to restructure the data.

``` r
> energy_dayWeek2 <- energy %>% 
+   filter(month==10) %>% 
+   group_by(dayWeek) %>% 
+   summarize(N=n(),mean_energyCMC=mean(`Center_for_Mathematics_&_Computing`,na.rm=TRUE),mean_energyLaird=mean(Laird_Hall,na.rm=TRUE)) %>%
+   print(n=5)  
# A tibble: 7 × 4
  dayWeek     N mean_energyCMC mean_energyLaird
  <fct>   <int>          <dbl>            <dbl>
1 Mon       384           14.5             31.7
2 Tues      384           14.7             31.3
3 Wed       384           15.1             32.4
4 Thurs     480           14.7             31.7
5 Fri       480           14.6             30.9
# … with 2 more rows
…
# Reshape `energy` data

Create a narrow version of the `energy` data to allow you to *filter* to
select one, or more, buildings to plot and analyze.

``` r
> energy_narrow <- energy %>% 
+   gather(key=building, value= energyKWH, `100_Nevada_Street`:Wilson_House)
> energy_narrow
# A tibble: 2,880,578 × 10
   Timestamp            year month weekOfYear dayOfMonth dayWeek timeH…¹ timeM…²
   <dttm>              <dbl> <dbl>      <dbl>      <dbl> <fct>     <dbl>   <dbl>
 1 2015-09-01 00:00:00  2015     9         35          1 Tues          0       0
 2 2015-09-01 00:15:00  2015     9         35          1 Tues          0      15
 3 2015-09-01 00:30:00  2015     9         35          1 Tues          0      30
 4 2015-09-01 00:45:00  2015     9         35          1 Tues          0      45
 5 2015-09-01 01:00:00  2015     9         35          1 Tues          1       0
 6 2015-09-01 01:15:00  2015     9         35          1 Tues          1      15
 7 2015-09-01 01:30:00  2015     9         35          1 Tues          1      30
 8 2015-09-01 01:45:00  2015     9         35          1 Tues          1      45
 9 2015-09-01 02:00:00  2015     9         35          1 Tues          2       0
10 2015-09-01 02:15:00  2015     9         35          1 Tues          2      15
# … with 2,880,568 more rows, 2 more variables: building <chr>,
#   energyKWH <dbl>, and abbreviated variable names ¹​timeHour, ²​timeMinute
```
…
#### *Answer:*

**1.** To do this you just need to filter to get the
`Center for Mathematics & Computing` rows and use the `energyKWH`
variable for the response.

``` r
> energy_narrow_dayWeek <- energy_narrow %>% 
+   filter(month==10, building== "Center_for_Mathematics_&_Computing") %>% 
+   group_by(dayWeek) %>% 
+   summarize(N=n(),mean_energy=mean(energyKWH,na.rm=TRUE)) %>%
+   print(n=5)  
# A tibble: 7 × 3
  dayWeek     N mean_energy
  <fct>   <int>       <dbl>
1 Mon       384        14.5
2 Tues      384        14.7
3 Wed       384        15.1
4 Thurs     480        14.7
5 Fri       480        14.6
# … with 2 more rows
…
**1.** Now we need to remove the CMC filter and *add* `building` to the
grouping variable list (otherwise we will get average daily usage across
all buildings on campus). It is hard to see any trends at all in this
graph because of the large gap between the highest line (likely the
“main campus” energy meter). Even without this meter’s readings, we
can’t easily distinguish between buildings.

``` r
> energy_narrow_dayWeekAll <- energy_narrow %>% 
+   filter(month==10) %>% 
+   group_by(dayWeek,building) %>% 
+   summarize(N=n(),mean_energy=mean(energyKWH,na.rm=TRUE)) %>%
+   print(n=5)  
# A tibble: 574 × 4
# Groups:   dayWeek [7]
  dayWeek building                             N mean_energy
  <fct>   <chr>                            <int>       <dbl>
1 Mon     100_Nevada_Street                  384       0.544
2 Mon     104_Maple_St.                      384       1.17 
3 Mon     106_Winona_St.                     384       0.721
4 Mon     Allen_House                        384       1.19 
5 Mon     Alumni_Guest_House/Johnson_House   384      20.7  
# … with 569 more rows
…
**1.** Repeat question 8, but this time just for acad/admin buildings.
Are any trends or differences in buildings clearer?

#### *Answer:*

**1.**

``` r
> energyJoin_dayWeekAll <- energyJoin %>% 
+   filter(month==10) %>% 
+   group_by(dayWeek,building) %>% 
+   summarize(N=n(),mean_energy=mean(energyKWH,na.rm=TRUE)) %>%
+   print(n=5)  
# A tibble: 140 × 4
# Groups:   dayWeek [7]
  dayWeek building                               N mean_energy
  <fct>   <chr>                              <int>       <dbl>
1 Mon     Alumni_Guest_House/Johnson_House     384      20.7  
2 Mon     Arboretum_Office                     384       0.365
3 Mon     Bird_House                           384       2.22 
4 Mon     Boliou_Memorial_Art_Bldg.            384       6.72 
5 Mon     Center_for_Mathematics_&_Computing   384      14.5  
# … with 135 more rows
…
**1.** With no missing data, there should be 2976 readings in a month
for each building. We are averaging these to get our top energy users in
Oct. (average is better than sum since some buildings may have energy
meters that were offline for some reason, creating the possibility of
missing data.) The top 5 energy users were Weitz, Laird, AGH/Johnson,
Gould, Sayles-Hill.

``` r
> energyJoin %>% 
+   filter(month==10) %>% 
+   group_by(building) %>% 
+   summarize(N=n(),mean_energy=mean(energyKWH,na.rm=TRUE)) %>% 
+   arrange(desc(mean_energy)) %>% 
+   print(n=5)
# A tibble: 20 × 3
  building                             N mean_energy
  <chr>                            <int>       <dbl>
1 Weitz_Center_for_Creativity       2976        33.8
2 Laird_Hall                        2976        28.5
3 Alumni_Guest_House/Johnson_House  2976        20.7
4 Gould_Memorial_Library            2976        20.4
5 Sayles-Hill                       2976        14.8
# … with 15 more rows
```
…
This makes sense if Laird Hall is an academic building while the others
are residential.

``` r
> top5byDay <- energyJoin %>% 
+   inner_join(top5,by="building") %>% 
+   filter(month==10) %>% 
+   group_by(building,dayWeek) %>% 
+   summarize(mean_energyPerSqFt = mean(energyKWH/sqFt,na.rm=TRUE), yearBuilt = first(year.x)) %>% 
+   print(n=5)
# A tibble: 35 × 4
# Groups:   building [5]
  building                         dayWeek mean_energyPerSqFt yearBuilt
  <chr>                            <fct>                <dbl>     <dbl>
1 Alumni_Guest_House/Johnson_House Mon                0.00102      1992
2 Alumni_Guest_House/Johnson_House Tues               0.00102      1992
3 Alumni_Guest_House/Johnson_House Wed                0.00102      1992
4 Alumni_Guest_House/Johnson_House Thurs              0.00101      1992
5 Alumni_Guest_House/Johnson_House Fri                0.00101      1992
# … with 30 more rows
…
