…
> clean_up_err <- function(perf)
+ { ns <- sapply(1:2, function(x){length(perf@x.values[[x]])})
+   fold <- unlist(lapply(1:2, function(x){rep(x,ns[x])}))
+   threshold <- unlist(perf@x.values)
+   error <- unlist(perf@y.values)
+   return(data_frame(threshold = threshold, error=error, fold = as.character(fold)) )
+ }
> train_df <- clean_up_err(perf_obj_train)
Warning: `data_frame()` was deprecated in tibble 1.1.0.
ℹ Please use `tibble()` instead.
This warning is displayed once every 8 hours.
Call `lifecycle::last_lifecycle_warnings()` to see where this warning was
generated.
> train_df
# A tibble: 3,845 × 3
   threshold error fold 
       <dbl> <dbl> <chr>
 1    Inf    0.398 1    
 2      1    0.397 1    
 3      1.00 0.396 1    
 4      1.00 0.396 1    
 5      1.00 0.395 1    
 6      1.00 0.395 1    
 7      1.00 0.395 1    
 8      1.00 0.394 1    
 9      1.00 0.394 1    
10      1.00 0.393 1    
# … with 3,835 more rows
…
#### *Answer:*

We just need to take the performace data from the test sets and plug it
into the cleanup function. We also want to add a `name` variable to the
data with entries called `test`. This will give us the ability to
distinguish between training and testing data once we bind the two data
frames together.

``` r
> test_df <- clean_up_err(perf_obj_test)
> test_df <- test_df %>% mutate(name = "test")
> test_df
# A tibble: 3,847 × 4
   threshold error fold  name 
       <dbl> <dbl> <chr> <chr>
 1    Inf    0.390 1     test 
 2      1    0.388 1     test 
 3      1.00 0.387 1     test 
 4      1.00 0.386 1     test 
 5      1.00 0.386 1     test 
 6      1.00 0.385 1     test 
 7      1.00 0.385 1     test 
 8      1.00 0.384 1     test 
 9      1.00 0.384 1     test 
10      1.00 0.383 1     test 
# … with 3,837 more rows
```

All columns of `test_df` and `train_df` so we can just bind together the
rows of the two data frames. Then we can plot threshold values vs. error
rates and code lines by color and fold:

``` r
> both_df <- bind_rows(test_df, train_df)
> both_df
# A tibble: 7,692 × 4
   threshold error fold  name 
       <dbl> <dbl> <chr> <chr>
 1    Inf    0.390 1     test 
 2      1    0.388 1     test 
 3      1.00 0.387 1     test 
 4      1.00 0.386 1     test 
 5      1.00 0.386 1     test 
 6      1.00 0.385 1     test 
 7      1.00 0.385 1     test 
 8      1.00 0.384 1     test 
 9      1.00 0.384 1     test 
10      1.00 0.383 1     test 
# … with 7,682 more rows
…
