…
### Question 6
Repeat question 3 but look for times rather than web links. (Times are likely given when announcing an upcoming event on Twitter.)

#### *Answer:*
We can find a time with a string like `##:##`, `#:##` or any tweet with an a.m. or p.m. reference. Looks like about 40% of tweets from the Andriod or iPhone have at least one time reference while about 25% of tweets from the web client do. 


```r
> times <- "[\\d]{1,2}:[\\d]{2}|(am|pm|PM|AM|p.m|a.m|P.M|A.M)"
> tweets %>%
+   filter(str_detect(text, times)) %>%
+   select(text) %>%
+   print(width=Inf)
# A tibble: 531 × 1
   text                                                                         
   <chr>                                                                        
 1 "My economic policy speech will be carried live at 12:15 P.M. Enjoy!"        
 2 "Join me in Fayetteville, North Carolina tomorrow evening at 6pm. Tickets no…
 3 "Michael Morell, the lightweight former Acting Director of C.I.A., and a man…
 4 "Thank you Windham, New Hampshire! #TrumpPence16 #MAGA https://t.co/ZL4Q01Q4…
 5 "I am not just running against Crooked Hillary Clinton, I am running against…
 6 "Heading to New Hampshire - will be talking about Hillary saying her brain S…
 7 "Good luck #TeamUSA\r\n#OpeningCeremony #Rio2016 https://t.co/mS8qsQpJPh"    
 8 "President Obama refuses to answer question about Iran terror funding.  I wo…
 9 "Obama's disastrous judgment gave us ISIS, rise of Iran, and the worst econo…
10 "President Obama should ask the DNC about how they rigged the election again…
# … with 521 more rows
…
