Network Graphs Activity
================
ECON 122
Day 20

## Country Migration

The following dataset contains migration counts for decades between 1960
and 2000 between the origin (`origincode`)and destination (`destcode`)
countries given in the data.

``` r
> MigrationFlows <- read_csv("https://raw.githubusercontent.com/mgelman/data/master/MigrationFlows.csv")
> MigrationFlows
# A tibble: 107,184 × 8
   sex   destcode origincode  Y1960  Y1970  Y1980  Y1990  Y2000
   <chr> <chr>    <chr>       <dbl>  <dbl>  <dbl>  <dbl>  <dbl>
 1 Male  FRA      AFG          1471     29     55     91    923
 2 Male  FRA      DZA        521679 723746 794288 861691 425229
 3 Male  FRA      AUS         14614   1906   1483    903   9168
 4 Male  FRA      AUT         12375   4861   4686   2761   7764
 5 Male  FRA      AZE           188      4     20     12    118
 6 Male  FRA      BLR           390      0     26     88    245
 7 Male  FRA      BLZ           623     22     25     38    391
 8 Male  FRA      BEN           233   5736   4409    397    166
 9 Male  FRA      ALB         15967     17      4   3586  10017
10 Male  FRA      ASM             0      0      0      0      0
# … with 107,174 more rows
```
…
Create a subsetted version of this data, called `MigrationFlowsF`, that
only contains migration counts of `females` `over 1000` in 2000. How
many cases are in this dataset?

#### *Answer:*

We filter according to our criteria, select our origin, destination and
migration count variables.

``` r
> MigrationFlowsF <- MigrationFlows %>% 
+   filter(sex == "Female", Y2000>1000) %>% 
+   select(origincode, destcode, Y2000) 
> MigrationFlowsF
# A tibble: 1,437 × 3
   origincode destcode  Y2000
   <chr>      <chr>     <dbl>
 1 DZA        FRA      201387
 2 AUS        FRA        8385
 3 AUT        FRA        7100
 4 ALB        FRA        9162
 5 AGO        FRA        3140
 6 ARG        FRA        5096
 7 BGD        FRA        6632
 8 BRB        FRA        1486
 9 BEL        FRA       15164
10 BIH        FRA       10555
# … with 1,427 more rows
```
…
