Network GoT Activity - Solution
================
ECON 122
Day 22

## Game of Thrones network

Consider the data described in the [Game of Thrones
handout](https://www.maa.org/sites/default/files/pdf/Mathhorizons/NetworkofThrones%20%281%29.pdf).
Read in the edgelist and weights from the Storm of Swords novel.

``` r
> got <- read_csv("https://raw.githubusercontent.com/mgelman/data/master/stormofswords.csv")
> got
# A tibble: 352 × 3
   Source  Target  Weight
   <chr>   <chr>    <dbl>
 1 Aemon   Grenn        5
 2 Aemon   Samwell     31
 3 Aerys   Jaime       18
 4 Aerys   Robert       6
 5 Aerys   Tyrion       5
 6 Aerys   Tywin        8
 7 Alliser Mance        5
 8 Amory   Oberyn       5
 9 Arya    Anguy       11
10 Arya    Beric       23
# … with 342 more rows
```
…
**answer** The highest degree and weighted degree include Tyrion, Jon,
Sansa and Jamie. Robb has a higher ranked degree (4th) than Bran
(\>10th), but Bran has a higher weighted degree (5th vs 6th). This means
that Bran interacts with fewer people (less degree), but when he does
interact with other character(s) he has many interaction instances.
Basically, Bran is in the book a lot but he interacts with fewer people
than Robb.

``` r
> stats %>% arrange(desc(degree))
# A tibble: 107 × 3
   name    degree wtdegree
   <chr>    <dbl>    <dbl>
 1 Tyrion      36      551
 2 Jon         26      442
 3 Sansa       26      383
 4 Robb        25      342
 5 Jaime       24      372
 6 Tywin       22      204
 7 Cersei      20      226
 8 Arya        19      269
 9 Catelyn     18      184
10 Joffrey     18      255
# … with 97 more rows
> stats %>% arrange(desc(wtdegree))
# A tibble: 107 × 3
   name     degree wtdegree
   <chr>     <dbl>    <dbl>
 1 Tyrion       36      551
 2 Jon          26      442
 3 Sansa        26      383
 4 Jaime        24      372
 5 Bran         14      344
 6 Robb         25      342
 7 Samwell      15      282
 8 Arya         19      269
 9 Joffrey      18      255
10 Daenerys     14      232
# … with 97 more rows
…
**answer:** She interacts primarily with a small group of individuals
and is a far distance (path) to others in the novel, but she is also
acts to connect these individuals to the wider network of characters
(hence the high betweenness).

``` r
> stats <- stats %>% 
+   mutate(betweenness = V(got.net)$betweenness,
+          closeness = V(got.net)$closeness, 
+          inv.closeness =  V(got.net)$inv.closeness )
> stats %>% arrange(desc(betweenness))
# A tibble: 107 × 6
   name     degree wtdegree betweenness closeness inv.closeness
   <chr>     <dbl>    <dbl>       <dbl>     <dbl>         <dbl>
 1 Jon          26      442       1280.     0.480          2.08
 2 Robert       18      128       1166.     0.5            2   
 3 Tyrion       36      551       1101.     0.512          1.95
 4 Daenerys     14      232        875.     0.366          2.74
 5 Robb         25      342        707.     0.488          2.05
 6 Sansa        26      383        705.     0.510          1.96
 7 Stannis      14      146        572.     0.480          2.08
 8 Jaime        24      372        556.     0.480          2.08
 9 Arya         19      269        443.     0.486          2.06
10 Tywin        22      204        365.     0.469          2.13
# … with 97 more rows
> stats %>% arrange(inv.closeness)
# A tibble: 107 × 6
   name    degree wtdegree betweenness closeness inv.closeness
   <chr>    <dbl>    <dbl>       <dbl>     <dbl>         <dbl>
 1 Tyrion      36      551       1101.     0.512          1.95
 2 Sansa       26      383        705.     0.510          1.96
 3 Robert      18      128       1166.     0.5            2   
 4 Robb        25      342        707.     0.488          2.05
 5 Arya        19      269        443.     0.486          2.06
 6 Jaime       24      372        556.     0.480          2.08
 7 Jon         26      442       1280.     0.480          2.08
 8 Stannis     14      146        572.     0.480          2.08
 9 Tywin       22      204        365.     0.469          2.13
10 Eddard      12      108        108.     0.461          2.17
# … with 97 more rows
```
…
- Plot the network with node or label size determined by the page rank
  value.

``` r
> V(got.net)$page.rank <- page_rank(got.net)$vector
```

``` r
> stats <- stats %>% 
+   mutate(page.rank = V(got.net)$page.rank)
> stats %>% arrange(desc(page.rank))
# A tibble: 107 × 7
   name     degree wtdegree betweenness closeness inv.closeness page.rank
   <chr>     <dbl>    <dbl>       <dbl>     <dbl>         <dbl>     <dbl>
 1 Tyrion       36      551       1101.     0.512          1.95    0.0555
 2 Jon          26      442       1280.     0.480          2.08    0.0449
 3 Daenerys     14      232        875.     0.366          2.74    0.0410
 4 Jaime        24      372        556.     0.480          2.08    0.0366
 5 Sansa        26      383        705.     0.510          1.96    0.0364
 6 Robb         25      342        707.     0.488          2.05    0.0341
 7 Bran         14      344        351.     0.421          2.38    0.0290
 8 Samwell      15      282        180.     0.384          2.60    0.0283
 9 Arya         19      269        443.     0.486          2.06    0.0255
10 Joffrey      18      255        142.     0.440          2.27    0.0242
# … with 97 more rows
```
…
