…
MDSR Exercise 4.3 (2nd Ed. 4.14)

Hint: You’ll need to use some date functions from the `lubridate`
package to create a variable for `week`.

#### *answers:*

``` r
> p8 <- flights %>% 
+   group_by(tailnum) %>% 
+   summarize(N=n()) %>% 
+   arrange(desc(N)) %>%
+   print(n=5)
# A tibble: 4,044 × 2
  tailnum     N
  <chr>   <int>
1 <NA>     2512
2 N725MQ    575
3 N722MQ    513
4 N723MQ    507
5 N711MQ    486
# … with 4,039 more rows
```
…
