…
**1.** Use a `filtering join` command to create a `flights` data subset
that only contains destinations in the `top_dest` top 10 destinations.
What is the dimension of this data set? Why does it make sense to use a
filtering join here?

#### *Answer 1:*

``` r
> flights10 <- semi_join(flights, top_dest)
> flights10
# A tibble: 141,145 × 19
    year month   day dep_time sched_de…¹ dep_d…² arr_t…³ sched…⁴ arr_d…⁵ carrier
   <int> <int> <int>    <int>      <int>   <dbl>   <int>   <int>   <dbl> <chr>  
 1  2013     1     1      542        540       2     923     850      33 AA     
 2  2013     1     1      554        600      -6     812     837     -25 DL     
 3  2013     1     1      554        558      -4     740     728      12 UA     
 4  2013     1     1      555        600      -5     913     854      19 B6     
 5  2013     1     1      557        600      -3     838     846      -8 B6     
 6  2013     1     1      558        600      -2     753     745       8 AA     
 7  2013     1     1      558        600      -2     924     917       7 UA     
 8  2013     1     1      558        600      -2     923     937     -14 UA     
 9  2013     1     1      559        559       0     702     706      -4 B6     
10  2013     1     1      600        600       0     851     858      -7 B6     
# … with 141,135 more rows, 9 more variables: flight <int>, tailnum <chr>,
#   origin <chr>, dest <chr>, air_time <dbl>, distance <dbl>, hour <dbl>,
#   minute <dbl>, time_hour <dttm>, and abbreviated variable names
#   ¹​sched_dep_time, ²​dep_delay, ³​arr_time, ⁴​sched_arr_time, ⁵​arr_delay
```
…
