…
+   perf_obj <- performance(preds_obj, "tpr","fpr")
+   perf_df <- data_frame(fpr=unlist(perf_obj@x.values), tpr= unlist(perf_obj@y.values), 
+                         threshold=unlist(perf_obj@alpha.values))
+   return(perf_df)
+ }
> perf_df <- all %>%
+    group_by(type) %>%
+   do(roc_fn(.))
Warning: `data_frame()` was deprecated in tibble 1.1.0.
ℹ Please use `tibble()` instead.
This warning is displayed once every 8 hours.
Call `lifecycle::last_lifecycle_warnings()` to see where this warning was
generated.
> perf_df
# A tibble: 988 × 4
# Groups:   type [2]
   type      fpr   tpr threshold
   <chr>   <dbl> <dbl>     <dbl>
 1 test  0           0   Inf    
 2 test  0.00434     0     0.314
 3 test  0.00579     0     0.252
 4 test  0.00868     0     0.236
 5 test  0.0101      0     0.204
 6 test  0.0130      0     0.199
 7 test  0.0145      0     0.193
 8 test  0.0203      0     0.184
 9 test  0.0217      0     0.182
10 test  0.0232      0     0.181
# … with 978 more rows
```
…
